<?xml version="1.0" encoding="UTF-8" standalone="no"?>
<!-- Created with Inkscape (http://www.inkscape.org/) -->

<svg
   width="50mm"
   height="50mm"
   viewBox="0 0 50 50"
   version="1.1"
   id="svg5"
   xml:space="preserve"
   inkscape:version="1.2.1 (9c6d41e410, 2022-07-14, custom)"
   sodipodi:docname="logo.svg"
   xmlns:inkscape="http://www.inkscape.org/namespaces/inkscape"
   xmlns:sodipodi="http://sodipodi.sourceforge.net/DTD/sodipodi-0.dtd"
   xmlns="http://www.w3.org/2000/svg"
   xmlns:svg="http://www.w3.org/2000/svg"><sodipodi:namedview
     id="namedview7"
     pagecolor="#505050"
     bordercolor="#eeeeee"
     borderopacity="1"
     inkscape:showpageshadow="0"
     inkscape:pageopacity="0"
     inkscape:pagecheckerboard="0"
     inkscape:deskcolor="#505050"
     inkscape:document-units="mm"
     showgrid="false"
     inkscape:zoom="1.6819304"
     inkscape:cx="32.997798"
     inkscape:cy="72.238423"
     inkscape:window-width="1280"
     inkscape:window-height="739"
     inkscape:window-x="0"
     inkscape:window-y="36"
     inkscape:window-maximized="1"
     inkscape:current-layer="layer1" /><defs
     id="defs2" /><g
     inkscape:label="Layer 1"
     inkscape:groupmode="layer"
     id="layer1"
     transform="translate(-154.8602,-176.72507)"><circle
       style="fill:#2b3467;fill-opacity:1;stroke-width:947.934;stop-color:#000000"
       id="path305"
       cx="179.8602"
       cy="201.72507"
       r="25" /><g
       style="fill:#ffffff;fill-opacity:1"
       id="g147"
       transform="matrix(1.3201961,0,0,1.3117763,164.09611,185.92823)"><path
         fill-rule="evenodd"
         clip-rule="evenodd"
         d="M 2,6 C 2,4.34315 3.34315,3 5,3 h 11 c 2.7614,0 5,2.23858 5,5 v 7.5076 c 0,0.2453 0.0301,0.4896 0.0896,0.7276 l 0.8805,3.5223 c 0.0867,0.3465 -0.0181,0.7129 -0.2749,0.9613 -0.2567,0.2483 -0.6265,0.3409 -0.9699,0.2427 L 14.2639,19.1154 C 13.9959,19.0389 13.7185,19 13.4398,19 H 7 C 4.23858,19 2,16.7614 2,14 Z M 5,5 C 4.44772,5 4,5.44772 4,6 v 8 c 0,1.6569 1.34315,3 3,3 h 6.4398 c 0.4646,0 0.9269,0.0647 1.3736,0.1924 l 4.7965,1.3704 -0.4606,-1.8425 C 19.0501,16.3237 19,15.9164 19,15.5076 V 8 C 19,6.34315 17.6569,5 16,5 Z"
         fill="#000000"
         id="path132"
         style="fill:#fcffe7;fill-opacity:1" /><path
         fill-rule="evenodd"
         clip-rule="evenodd"
         d="M 6,9 C 6,8.44772 6.44772,8 7,8 h 9 c 0.5523,0 1,0.44772 1,1 0,0.55228 -0.4477,1 -1,1 H 7 C 6.44772,10 6,9.55228 6,9 Z"
         fill="#000000"
         id="path134"
         style="fill:#bad7e9;fill-opacity:1" /><path
         fill-rule="evenodd"
         clip-rule="evenodd"
         d="m 6,13 c 0,-0.5523 0.44772,-1 1,-1 h 7 c 0.5523,0 1,0.4477 1,1 0,0.5523 -0.4477,1 -1,1 H 7 C 6.44772,14 6,13.5523 6,13 Z"
         fill="#000000"
         id="path136"
         style="fill:#eb455f;fill-opacity:1" /></g></g></svg>
